-- Merging decision tree log ---
manifest
ADDED from E:\PrintRotatedImage\app\src\main\AndroidManifest.xml:2:1-34:12
INJECTED from E:\PrintRotatedImage\app\src\main\AndroidManifest.xml:2:1-34:12
INJECTED from E:\PrintRotatedImage\app\src\main\AndroidManifest.xml:2:1-34:12
INJECTED from E:\PrintRotatedImage\app\src\main\AndroidManifest.xml:2:1-34:12
MERGED from [com.android.support:design:28.0.0] C:\Users\Lenovo\.gradle\caches\transforms-2\files-2.1\97042496958e85c6030c3bd1b644e313\AndroidManifest.xml:17:1-24:12
MERGED from [com.android.support:appcompat-v7:28.0.0] C:\Users\Lenovo\.gradle\caches\transforms-2\files-2.1\4f2bc54bd922b9838d3aea5df8141231\AndroidManifest.xml:17:1-22:12
MERGED from [com.android.support:support-fragment:28.0.0] C:\Users\Lenovo\.gradle\caches\transforms-2\files-2.1\272d8677d0ddea3df3a2b24a19d48e2f\AndroidManifest.xml:17:1-22:12
MERGED from [com.android.support:recyclerview-v7:28.0.0] C:\Users\Lenovo\.gradle\caches\transforms-2\files-2.1\99ee0c515e818b36f3f84782e5687ffd\AndroidManifest.xml:17:1-22:12
MERGED from [com.android.support:animated-vector-drawable:28.0.0] C:\Users\Lenovo\.gradle\caches\transforms-2\files-2.1\40ce1eaff21188c5a5a1334d1f4ee708\AndroidManifest.xml:17:1-22:12
MERGED from [com.android.support:support-core-ui:28.0.0] C:\Users\Lenovo\.gradle\caches\transforms-2\files-2.1\b500699b9ada61eb663fc761081a21cb\AndroidManifest.xml:17:1-22:12
MERGED from [com.android.support:support-core-utils:28.0.0] C:\Users\Lenovo\.gradle\caches\transforms-2\files-2.1\b3d274c3c9d770321035e1e6811abde7\AndroidManifest.xml:17:1-22:12
MERGED from [com.android.support:transition:28.0.0] C:\Users\Lenovo\.gradle\caches\transforms-2\files-2.1\a7f1c1ba1f3042b4c69853987b886376\AndroidManifest.xml:17:1-22:12
MERGED from [com.android.support:viewpager:28.0.0] C:\Users\Lenovo\.gradle\caches\transforms-2\files-2.1\08a35f871fed4a889e6109d712d8ac9e\AndroidManifest.xml:17:1-22:12
MERGED from [com.android.support:coordinatorlayout:28.0.0] C:\Users\Lenovo\.gradle\caches\transforms-2\files-2.1\c62072384130f3b68dd4ce223544932a\AndroidManifest.xml:17:1-22:12
MERGED from [com.android.support:drawerlayout:28.0.0] C:\Users\Lenovo\.gradle\caches\transforms-2\files-2.1\b6333bb4dec42bce5fd0f4d71b35bc4d\AndroidManifest.xml:17:1-22:12
MERGED from [com.android.support:slidingpanelayout:28.0.0] C:\Users\Lenovo\.gradle\caches\transforms-2\files-2.1\99682d2383d76329136318e4a77cf7de\AndroidManifest.xml:17:1-22:12
MERGED from [com.android.support:customview:28.0.0] C:\Users\Lenovo\.gradle\caches\transforms-2\files-2.1\1ad9a774be70168aecb07441ed26d4bc\AndroidManifest.xml:17:1-22:12
MERGED from [com.android.support:swiperefreshlayout:28.0.0] C:\Users\Lenovo\.gradle\caches\transforms-2\files-2.1\d4a079e5f12ece62769f80d6efaa3792\AndroidManifest.xml:17:1-22:12
MERGED from [com.android.support:asynclayoutinflater:28.0.0] C:\Users\Lenovo\.gradle\caches\transforms-2\files-2.1\34a193ec8032c719ecf76ee84889a3cf\AndroidManifest.xml:17:1-22:12
MERGED from [com.android.support:loader:28.0.0] C:\Users\Lenovo\.gradle\caches\transforms-2\files-2.1\5feaa0ceb48685b55fc45c30463b9aee\AndroidManifest.xml:17:1-22:12
MERGED from [com.android.support:support-vector-drawable:28.0.0] C:\Users\Lenovo\.gradle\caches\transforms-2\files-2.1\2415b70c8b0bd96ee9ba1f4b5771bae6\AndroidManifest.xml:17:1-22:12
MERGED from [com.android.support:support-compat:28.0.0] C:\Users\Lenovo\.gradle\caches\transforms-2\files-2.1\d7da89e385ee543fca4589adb79d3f5a\AndroidManifest.xml:17:1-24:12
MERGED from [com.android.support:cardview-v7:28.0.0] C:\Users\Lenovo\.gradle\caches\transforms-2\files-2.1\c8dcfd06d6457035d821d193bc7e9a0c\AndroidManifest.xml:17:1-22:12
MERGED from [com.android.support:versionedparcelable:28.0.0] C:\Users\Lenovo\.gradle\caches\transforms-2\files-2.1\e847911b9acba3d852b6e4f4d4fac951\AndroidManifest.xml:17:1-25:12
MERGED from [android.arch.lifecycle:runtime:1.1.1] C:\Users\Lenovo\.gradle\caches\transforms-2\files-2.1\5b1a7fc32b60a8bace1f5a2ca4310acc\AndroidManifest.xml:17:1-22:12
MERGED from [com.android.support:interpolator:28.0.0] C:\Users\Lenovo\.gradle\caches\transforms-2\files-2.1\0e63c9f8756ecebbcee16e6a059a5e83\AndroidManifest.xml:17:1-22:12
MERGED from [com.android.support:cursoradapter:28.0.0] C:\Users\Lenovo\.gradle\caches\transforms-2\files-2.1\63e6b640e825448ca71effbcf4c43f47\AndroidManifest.xml:17:1-22:12
MERGED from [com.android.support:documentfile:28.0.0] C:\Users\Lenovo\.gradle\caches\transforms-2\files-2.1\c8511b7d287728dc4f9d5d40040bb80c\AndroidManifest.xml:17:1-22:12
MERGED from [com.android.support:localbroadcastmanager:28.0.0] C:\Users\Lenovo\.gradle\caches\transforms-2\files-2.1\81d55c1f72be995989dd7667d7725b78\AndroidManifest.xml:17:1-22:12
MERGED from [com.android.support:print:28.0.0] C:\Users\Lenovo\.gradle\caches\transforms-2\files-2.1\f71d775292b0af21e02c3f46bbf92fea\AndroidManifest.xml:17:1-22:12
MERGED from [android.arch.lifecycle:viewmodel:1.1.1] C:\Users\Lenovo\.gradle\caches\transforms-2\files-2.1\74002bfbd4337a5fb2e6fbeca02aa755\AndroidManifest.xml:17:1-22:12
MERGED from [android.arch.lifecycle:livedata:1.1.1] C:\Users\Lenovo\.gradle\caches\transforms-2\files-2.1\c9bb46639e146b8f9339e4f9e27965a8\AndroidManifest.xml:17:1-22:12
MERGED from [android.arch.lifecycle:livedata-core:1.1.1] C:\Users\Lenovo\.gradle\caches\transforms-2\files-2.1\e743fb648dd88c7124f805ac89d3c446\AndroidManifest.xml:17:1-22:12
MERGED from [android.arch.core:runtime:1.1.1] C:\Users\Lenovo\.gradle\caches\transforms-2\files-2.1\b467443a76d038373453d251c6e4a8be\AndroidManifest.xml:17:1-22:12
INJECTED from E:\PrintRotatedImage\app\src\main\AndroidManifest.xml:2:1-34:12
INJECTED from E:\PrintRotatedImage\app\src\main\AndroidManifest.xml:2:1-34:12
INJECTED from E:\PrintRotatedImage\app\src\main\AndroidManifest.xml:2:1-34:12
	package
		ADDED from E:\PrintRotatedImage\app\src\main\AndroidManifest.xml:3:5-42
		INJECTED from E:\PrintRotatedImage\app\src\main\AndroidManifest.xml
		INJECTED from E:\PrintRotatedImage\app\src\main\AndroidManifest.xml
	android:versionName
		INJECTED from E:\PrintRotatedImage\app\src\main\AndroidManifest.xml
		ADDED from E:\PrintRotatedImage\app\src\main\AndroidManifest.xml:2:1-34:12
		INJECTED from E:\PrintRotatedImage\app\src\main\AndroidManifest.xml
	android:versionCode
		INJECTED from E:\PrintRotatedImage\app\src\main\AndroidManifest.xml
		ADDED from E:\PrintRotatedImage\app\src\main\AndroidManifest.xml:2:1-34:12
		INJECTED from E:\PrintRotatedImage\app\src\main\AndroidManifest.xml
	xmlns:android
		ADDED from E:\PrintRotatedImage\app\src\main\AndroidManifest.xml:2:11-69
uses-permission#android.permission.BLUETOOTH
ADDED from E:\PrintRotatedImage\app\src\main\AndroidManifest.xml:5:5-68
	android:name
		ADDED from E:\PrintRotatedImage\app\src\main\AndroidManifest.xml:5:22-65
uses-permission#android.permission.BLUETOOTH_ADMIN
ADDED from E:\PrintRotatedImage\app\src\main\AndroidManifest.xml:6:5-74
	android:name
		ADDED from E:\PrintRotatedImage\app\src\main\AndroidManifest.xml:6:22-71
uses-permission#android.permission.CHANGE_WIFI_MULTICAST_STATE
ADDED from E:\PrintRotatedImage\app\src\main\AndroidManifest.xml:7:5-86
	android:name
		ADDED from E:\PrintRotatedImage\app\src\main\AndroidManifest.xml:7:22-83
uses-permission#android.permission.INTERNET
ADDED from E:\PrintRotatedImage\app\src\main\AndroidManifest.xml:8:5-67
	android:name
		ADDED from E:\PrintRotatedImage\app\src\main\AndroidManifest.xml:8:22-64
uses-permission#android.permission.WRITE_EXTERNAL_STORAGE
ADDED from E:\PrintRotatedImage\app\src\main\AndroidManifest.xml:9:5-81
	android:name
		ADDED from E:\PrintRotatedImage\app\src\main\AndroidManifest.xml:9:22-78
uses-permission#android.permission.CAMERA
ADDED from E:\PrintRotatedImage\app\src\main\AndroidManifest.xml:10:5-65
	android:name
		ADDED from E:\PrintRotatedImage\app\src\main\AndroidManifest.xml:10:22-62
uses-feature#android.hardware.camera
ADDED from E:\PrintRotatedImage\app\src\main\AndroidManifest.xml:12:5-60
	android:name
		ADDED from E:\PrintRotatedImage\app\src\main\AndroidManifest.xml:12:19-57
uses-feature#android.hardware.camera.autofocus
ADDED from E:\PrintRotatedImage\app\src\main\AndroidManifest.xml:13:5-70
	android:name
		ADDED from E:\PrintRotatedImage\app\src\main\AndroidManifest.xml:13:19-67
application
ADDED from E:\PrintRotatedImage\app\src\main\AndroidManifest.xml:16:5-32:19
MERGED from [com.android.support:design:28.0.0] C:\Users\Lenovo\.gradle\caches\transforms-2\files-2.1\97042496958e85c6030c3bd1b644e313\AndroidManifest.xml:22:5-20
MERGED from [com.android.support:design:28.0.0] C:\Users\Lenovo\.gradle\caches\transforms-2\files-2.1\97042496958e85c6030c3bd1b644e313\AndroidManifest.xml:22:5-20
MERGED from [com.android.support:support-compat:28.0.0] C:\Users\Lenovo\.gradle\caches\transforms-2\files-2.1\d7da89e385ee543fca4589adb79d3f5a\AndroidManifest.xml:22:5-94
MERGED from [com.android.support:support-compat:28.0.0] C:\Users\Lenovo\.gradle\caches\transforms-2\files-2.1\d7da89e385ee543fca4589adb79d3f5a\AndroidManifest.xml:22:5-94
MERGED from [com.android.support:versionedparcelable:28.0.0] C:\Users\Lenovo\.gradle\caches\transforms-2\files-2.1\e847911b9acba3d852b6e4f4d4fac951\AndroidManifest.xml:22:5-23:19
MERGED from [com.android.support:versionedparcelable:28.0.0] C:\Users\Lenovo\.gradle\caches\transforms-2\files-2.1\e847911b9acba3d852b6e4f4d4fac951\AndroidManifest.xml:22:5-23:19
	android:appComponentFactory
		ADDED from [com.android.support:support-compat:28.0.0] C:\Users\Lenovo\.gradle\caches\transforms-2\files-2.1\d7da89e385ee543fca4589adb79d3f5a\AndroidManifest.xml:22:18-91
	android:label
		ADDED from E:\PrintRotatedImage\app\src\main\AndroidManifest.xml:19:9-41
	android:icon
		ADDED from E:\PrintRotatedImage\app\src\main\AndroidManifest.xml:18:9-45
	android:allowBackup
		ADDED from E:\PrintRotatedImage\app\src\main\AndroidManifest.xml:17:9-35
	android:theme
		ADDED from E:\PrintRotatedImage\app\src\main\AndroidManifest.xml:20:9-40
activity#com.zebra.printrotatedimage.MainActivity
ADDED from E:\PrintRotatedImage\app\src\main\AndroidManifest.xml:22:9-31:20
	android:screenOrientation
		ADDED from E:\PrintRotatedImage\app\src\main\AndroidManifest.xml:25:13-49
	android:label
		ADDED from E:\PrintRotatedImage\app\src\main\AndroidManifest.xml:24:13-45
	android:name
		ADDED from E:\PrintRotatedImage\app\src\main\AndroidManifest.xml:23:13-68
intent-filter#action:name:android.intent.action.MAIN+category:name:android.intent.category.LAUNCHER
ADDED from E:\PrintRotatedImage\app\src\main\AndroidManifest.xml:26:13-30:29
action#android.intent.action.MAIN
ADDED from E:\PrintRotatedImage\app\src\main\AndroidManifest.xml:27:17-69
	android:name
		ADDED from E:\PrintRotatedImage\app\src\main\AndroidManifest.xml:27:25-66
category#android.intent.category.LAUNCHER
ADDED from E:\PrintRotatedImage\app\src\main\AndroidManifest.xml:29:17-77
	android:name
		ADDED from E:\PrintRotatedImage\app\src\main\AndroidManifest.xml:29:27-74
uses-sdk
INJECTED from E:\PrintRotatedImage\app\src\main\AndroidManifest.xml reason: use-sdk injection requested
INJECTED from E:\PrintRotatedImage\app\src\main\AndroidManifest.xml
INJECTED from E:\PrintRotatedImage\app\src\main\AndroidManifest.xml
MERGED from [com.android.support:design:28.0.0] C:\Users\Lenovo\.gradle\caches\transforms-2\files-2.1\97042496958e85c6030c3bd1b644e313\AndroidManifest.xml:20:5-44
MERGED from [com.android.support:design:28.0.0] C:\Users\Lenovo\.gradle\caches\transforms-2\files-2.1\97042496958e85c6030c3bd1b644e313\AndroidManifest.xml:20:5-44
MERGED from [com.android.support:appcompat-v7:28.0.0] C:\Users\Lenovo\.gradle\caches\transforms-2\files-2.1\4f2bc54bd922b9838d3aea5df8141231\AndroidManifest.xml:20:5-44
MERGED from [com.android.support:appcompat-v7:28.0.0] C:\Users\Lenovo\.gradle\caches\transforms-2\files-2.1\4f2bc54bd922b9838d3aea5df8141231\AndroidManifest.xml:20:5-44
MERGED from [com.android.support:support-fragment:28.0.0] C:\Users\Lenovo\.gradle\caches\transforms-2\files-2.1\272d8677d0ddea3df3a2b24a19d48e2f\AndroidManifest.xml:20:5-44
MERGED from [com.android.support:support-fragment:28.0.0] C:\Users\Lenovo\.gradle\caches\transforms-2\files-2.1\272d8677d0ddea3df3a2b24a19d48e2f\AndroidManifest.xml:20:5-44
MERGED from [com.android.support:recyclerview-v7:28.0.0] C:\Users\Lenovo\.gradle\caches\transforms-2\files-2.1\99ee0c515e818b36f3f84782e5687ffd\AndroidManifest.xml:20:5-44
MERGED from [com.android.support:recyclerview-v7:28.0.0] C:\Users\Lenovo\.gradle\caches\transforms-2\files-2.1\99ee0c515e818b36f3f84782e5687ffd\AndroidManifest.xml:20:5-44
MERGED from [com.android.support:animated-vector-drawable:28.0.0] C:\Users\Lenovo\.gradle\caches\transforms-2\files-2.1\40ce1eaff21188c5a5a1334d1f4ee708\AndroidManifest.xml:20:5-44
MERGED from [com.android.support:animated-vector-drawable:28.0.0] C:\Users\Lenovo\.gradle\caches\transforms-2\files-2.1\40ce1eaff21188c5a5a1334d1f4ee708\AndroidManifest.xml:20:5-44
MERGED from [com.android.support:support-core-ui:28.0.0] C:\Users\Lenovo\.gradle\caches\transforms-2\files-2.1\b500699b9ada61eb663fc761081a21cb\AndroidManifest.xml:20:5-44
MERGED from [com.android.support:support-core-ui:28.0.0] C:\Users\Lenovo\.gradle\caches\transforms-2\files-2.1\b500699b9ada61eb663fc761081a21cb\AndroidManifest.xml:20:5-44
MERGED from [com.android.support:support-core-utils:28.0.0] C:\Users\Lenovo\.gradle\caches\transforms-2\files-2.1\b3d274c3c9d770321035e1e6811abde7\AndroidManifest.xml:20:5-44
MERGED from [com.android.support:support-core-utils:28.0.0] C:\Users\Lenovo\.gradle\caches\transforms-2\files-2.1\b3d274c3c9d770321035e1e6811abde7\AndroidManifest.xml:20:5-44
MERGED from [com.android.support:transition:28.0.0] C:\Users\Lenovo\.gradle\caches\transforms-2\files-2.1\a7f1c1ba1f3042b4c69853987b886376\AndroidManifest.xml:20:5-44
MERGED from [com.android.support:transition:28.0.0] C:\Users\Lenovo\.gradle\caches\transforms-2\files-2.1\a7f1c1ba1f3042b4c69853987b886376\AndroidManifest.xml:20:5-44
MERGED from [com.android.support:viewpager:28.0.0] C:\Users\Lenovo\.gradle\caches\transforms-2\files-2.1\08a35f871fed4a889e6109d712d8ac9e\AndroidManifest.xml:20:5-44
MERGED from [com.android.support:viewpager:28.0.0] C:\Users\Lenovo\.gradle\caches\transforms-2\files-2.1\08a35f871fed4a889e6109d712d8ac9e\AndroidManifest.xml:20:5-44
MERGED from [com.android.support:coordinatorlayout:28.0.0] C:\Users\Lenovo\.gradle\caches\transforms-2\files-2.1\c62072384130f3b68dd4ce223544932a\AndroidManifest.xml:20:5-44
MERGED from [com.android.support:coordinatorlayout:28.0.0] C:\Users\Lenovo\.gradle\caches\transforms-2\files-2.1\c62072384130f3b68dd4ce223544932a\AndroidManifest.xml:20:5-44
MERGED from [com.android.support:drawerlayout:28.0.0] C:\Users\Lenovo\.gradle\caches\transforms-2\files-2.1\b6333bb4dec42bce5fd0f4d71b35bc4d\AndroidManifest.xml:20:5-44
MERGED from [com.android.support:drawerlayout:28.0.0] C:\Users\Lenovo\.gradle\caches\transforms-2\files-2.1\b6333bb4dec42bce5fd0f4d71b35bc4d\AndroidManifest.xml:20:5-44
MERGED from [com.android.support:slidingpanelayout:28.0.0] C:\Users\Lenovo\.gradle\caches\transforms-2\files-2.1\99682d2383d76329136318e4a77cf7de\AndroidManifest.xml:20:5-44
MERGED from [com.android.support:slidingpanelayout:28.0.0] C:\Users\Lenovo\.gradle\caches\transforms-2\files-2.1\99682d2383d76329136318e4a77cf7de\AndroidManifest.xml:20:5-44
MERGED from [com.android.support:customview:28.0.0] C:\Users\Lenovo\.gradle\caches\transforms-2\files-2.1\1ad9a774be70168aecb07441ed26d4bc\AndroidManifest.xml:20:5-44
MERGED from [com.android.support:customview:28.0.0] C:\Users\Lenovo\.gradle\caches\transforms-2\files-2.1\1ad9a774be70168aecb07441ed26d4bc\AndroidManifest.xml:20:5-44
MERGED from [com.android.support:swiperefreshlayout:28.0.0] C:\Users\Lenovo\.gradle\caches\transforms-2\files-2.1\d4a079e5f12ece62769f80d6efaa3792\AndroidManifest.xml:20:5-44
MERGED from [com.android.support:swiperefreshlayout:28.0.0] C:\Users\Lenovo\.gradle\caches\transforms-2\files-2.1\d4a079e5f12ece62769f80d6efaa3792\AndroidManifest.xml:20:5-44
MERGED from [com.android.support:asynclayoutinflater:28.0.0] C:\Users\Lenovo\.gradle\caches\transforms-2\files-2.1\34a193ec8032c719ecf76ee84889a3cf\AndroidManifest.xml:20:5-44
MERGED from [com.android.support:asynclayoutinflater:28.0.0] C:\Users\Lenovo\.gradle\caches\transforms-2\files-2.1\34a193ec8032c719ecf76ee84889a3cf\AndroidManifest.xml:20:5-44
MERGED from [com.android.support:loader:28.0.0] C:\Users\Lenovo\.gradle\caches\transforms-2\files-2.1\5feaa0ceb48685b55fc45c30463b9aee\AndroidManifest.xml:20:5-44
MERGED from [com.android.support:loader:28.0.0] C:\Users\Lenovo\.gradle\caches\transforms-2\files-2.1\5feaa0ceb48685b55fc45c30463b9aee\AndroidManifest.xml:20:5-44
MERGED from [com.android.support:support-vector-drawable:28.0.0] C:\Users\Lenovo\.gradle\caches\transforms-2\files-2.1\2415b70c8b0bd96ee9ba1f4b5771bae6\AndroidManifest.xml:20:5-44
MERGED from [com.android.support:support-vector-drawable:28.0.0] C:\Users\Lenovo\.gradle\caches\transforms-2\files-2.1\2415b70c8b0bd96ee9ba1f4b5771bae6\AndroidManifest.xml:20:5-44
MERGED from [com.android.support:support-compat:28.0.0] C:\Users\Lenovo\.gradle\caches\transforms-2\files-2.1\d7da89e385ee543fca4589adb79d3f5a\AndroidManifest.xml:20:5-44
MERGED from [com.android.support:support-compat:28.0.0] C:\Users\Lenovo\.gradle\caches\transforms-2\files-2.1\d7da89e385ee543fca4589adb79d3f5a\AndroidManifest.xml:20:5-44
MERGED from [com.android.support:cardview-v7:28.0.0] C:\Users\Lenovo\.gradle\caches\transforms-2\files-2.1\c8dcfd06d6457035d821d193bc7e9a0c\AndroidManifest.xml:20:5-44
MERGED from [com.android.support:cardview-v7:28.0.0] C:\Users\Lenovo\.gradle\caches\transforms-2\files-2.1\c8dcfd06d6457035d821d193bc7e9a0c\AndroidManifest.xml:20:5-44
MERGED from [com.android.support:versionedparcelable:28.0.0] C:\Users\Lenovo\.gradle\caches\transforms-2\files-2.1\e847911b9acba3d852b6e4f4d4fac951\AndroidManifest.xml:20:5-44
MERGED from [com.android.support:versionedparcelable:28.0.0] C:\Users\Lenovo\.gradle\caches\transforms-2\files-2.1\e847911b9acba3d852b6e4f4d4fac951\AndroidManifest.xml:20:5-44
MERGED from [android.arch.lifecycle:runtime:1.1.1] C:\Users\Lenovo\.gradle\caches\transforms-2\files-2.1\5b1a7fc32b60a8bace1f5a2ca4310acc\AndroidManifest.xml:20:5-44
MERGED from [android.arch.lifecycle:runtime:1.1.1] C:\Users\Lenovo\.gradle\caches\transforms-2\files-2.1\5b1a7fc32b60a8bace1f5a2ca4310acc\AndroidManifest.xml:20:5-44
MERGED from [com.android.support:interpolator:28.0.0] C:\Users\Lenovo\.gradle\caches\transforms-2\files-2.1\0e63c9f8756ecebbcee16e6a059a5e83\AndroidManifest.xml:20:5-44
MERGED from [com.android.support:interpolator:28.0.0] C:\Users\Lenovo\.gradle\caches\transforms-2\files-2.1\0e63c9f8756ecebbcee16e6a059a5e83\AndroidManifest.xml:20:5-44
MERGED from [com.android.support:cursoradapter:28.0.0] C:\Users\Lenovo\.gradle\caches\transforms-2\files-2.1\63e6b640e825448ca71effbcf4c43f47\AndroidManifest.xml:20:5-44
MERGED from [com.android.support:cursoradapter:28.0.0] C:\Users\Lenovo\.gradle\caches\transforms-2\files-2.1\63e6b640e825448ca71effbcf4c43f47\AndroidManifest.xml:20:5-44
MERGED from [com.android.support:documentfile:28.0.0] C:\Users\Lenovo\.gradle\caches\transforms-2\files-2.1\c8511b7d287728dc4f9d5d40040bb80c\AndroidManifest.xml:20:5-44
MERGED from [com.android.support:documentfile:28.0.0] C:\Users\Lenovo\.gradle\caches\transforms-2\files-2.1\c8511b7d287728dc4f9d5d40040bb80c\AndroidManifest.xml:20:5-44
MERGED from [com.android.support:localbroadcastmanager:28.0.0] C:\Users\Lenovo\.gradle\caches\transforms-2\files-2.1\81d55c1f72be995989dd7667d7725b78\AndroidManifest.xml:20:5-44
MERGED from [com.android.support:localbroadcastmanager:28.0.0] C:\Users\Lenovo\.gradle\caches\transforms-2\files-2.1\81d55c1f72be995989dd7667d7725b78\AndroidManifest.xml:20:5-44
MERGED from [com.android.support:print:28.0.0] C:\Users\Lenovo\.gradle\caches\transforms-2\files-2.1\f71d775292b0af21e02c3f46bbf92fea\AndroidManifest.xml:20:5-44
MERGED from [com.android.support:print:28.0.0] C:\Users\Lenovo\.gradle\caches\transforms-2\files-2.1\f71d775292b0af21e02c3f46bbf92fea\AndroidManifest.xml:20:5-44
MERGED from [android.arch.lifecycle:viewmodel:1.1.1] C:\Users\Lenovo\.gradle\caches\transforms-2\files-2.1\74002bfbd4337a5fb2e6fbeca02aa755\AndroidManifest.xml:20:5-44
MERGED from [android.arch.lifecycle:viewmodel:1.1.1] C:\Users\Lenovo\.gradle\caches\transforms-2\files-2.1\74002bfbd4337a5fb2e6fbeca02aa755\AndroidManifest.xml:20:5-44
MERGED from [android.arch.lifecycle:livedata:1.1.1] C:\Users\Lenovo\.gradle\caches\transforms-2\files-2.1\c9bb46639e146b8f9339e4f9e27965a8\AndroidManifest.xml:20:5-44
MERGED from [android.arch.lifecycle:livedata:1.1.1] C:\Users\Lenovo\.gradle\caches\transforms-2\files-2.1\c9bb46639e146b8f9339e4f9e27965a8\AndroidManifest.xml:20:5-44
MERGED from [android.arch.lifecycle:livedata-core:1.1.1] C:\Users\Lenovo\.gradle\caches\transforms-2\files-2.1\e743fb648dd88c7124f805ac89d3c446\AndroidManifest.xml:20:5-44
MERGED from [android.arch.lifecycle:livedata-core:1.1.1] C:\Users\Lenovo\.gradle\caches\transforms-2\files-2.1\e743fb648dd88c7124f805ac89d3c446\AndroidManifest.xml:20:5-44
MERGED from [android.arch.core:runtime:1.1.1] C:\Users\Lenovo\.gradle\caches\transforms-2\files-2.1\b467443a76d038373453d251c6e4a8be\AndroidManifest.xml:20:5-44
MERGED from [android.arch.core:runtime:1.1.1] C:\Users\Lenovo\.gradle\caches\transforms-2\files-2.1\b467443a76d038373453d251c6e4a8be\AndroidManifest.xml:20:5-44
INJECTED from E:\PrintRotatedImage\app\src\main\AndroidManifest.xml
INJECTED from E:\PrintRotatedImage\app\src\main\AndroidManifest.xml
	android:targetSdkVersion
		INJECTED from E:\PrintRotatedImage\app\src\main\AndroidManifest.xml
		ADDED from E:\PrintRotatedImage\app\src\main\AndroidManifest.xml
		INJECTED from E:\PrintRotatedImage\app\src\main\AndroidManifest.xml
	android:minSdkVersion
		INJECTED from E:\PrintRotatedImage\app\src\main\AndroidManifest.xml
		ADDED from E:\PrintRotatedImage\app\src\main\AndroidManifest.xml
		INJECTED from E:\PrintRotatedImage\app\src\main\AndroidManifest.xml
